module todo

go 1.22.5

require (
	github.com/a-h/templ v0.2.778
	github.com/go-playground/locales v0.14.1
	github.com/go-playground/universal-translator v0.18.1
	github.com/go-playground/validator/v10 v10.22.1
	github.com/joho/godotenv v1.5.1
	github.com/labstack/echo/v4 v4.12.0
	github.com/lestrrat-go/jwx/v2 v2.1.1
	github.com/lmittmann/tint v1.0.5
	github.com/orandin/slog-gorm v1.4.0
	github.com/samber/lo v1.47.0
	golang.org/x/crypto v0.28.0
	gorm.io/driver/postgres v1.5.9
	gorm.io/gorm v1.25.12
)

require (
	github.com/decred/dcrd/dcrec/secp256k1/v4 v4.3.0 // indirect
	github.com/gabriel-vasile/mimetype v1.4.6 // indirect
	github.com/goccy/go-json v0.10.3 // indirect
	github.com/golang-jwt/jwt v3.2.2+incompatible // indirect
	github.com/jackc/pgpassfile v1.0.0 // indirect
	github.com/jackc/pgservicefile v0.0.0-20240606120523-5a60cdf6a761 // indirect
	github.com/jackc/pgx/v5 v5.7.1 // indirect
	github.com/jackc/puddle/v2 v2.2.2 // indirect
	github.com/jinzhu/inflection v1.0.0 // indirect
	github.com/jinzhu/now v1.1.5 // indirect
	github.com/labstack/gommon v0.4.2 // indirect
	github.com/leodido/go-urn v1.4.0 // indirect
	github.com/lestrrat-go/blackmagic v1.0.2 // indirect
	github.com/lestrrat-go/httpcc v1.0.1 // indirect
	github.com/lestrrat-go/httprc v1.0.6 // indirect
	github.com/lestrrat-go/iter v1.0.2 // indirect
	github.com/lestrrat-go/option v1.0.1 // indirect
	github.com/mattn/go-colorable v0.1.13 // indirect
	github.com/mattn/go-isatty v0.0.20 // indirect
	github.com/segmentio/asm v1.2.0 // indirect
	github.com/valyala/bytebufferpool v1.0.0 // indirect
	github.com/valyala/fasttemplate v1.2.2 // indirect
	golang.org/x/net v0.30.0 // indirect
	golang.org/x/sync v0.8.0 // indirect
	golang.org/x/sys v0.26.0 // indirect
	golang.org/x/text v0.19.0 // indirect
	golang.org/x/time v0.7.0 // indirect
)
